{
  "pois": [
    {
      "poiId": 819608,
      "nodeId": 1129673,
      "geometry": {
        "type": "Polygon",
        "coordinates": [
          [
            [
              763137.9850857164,
              6843428.440878316
            ],
            [
              763142.6289338588,
              6843428.029339672
            ],
            [
              763142.0797083889,
              6843421.831916996
            ],
            [
              763140.4517410353,
              6843423.327260695
            ],
            [
              763138.757319451,
              6843426.010809314
            ],
            [
              763137.9850857164,
              6843428.440878316
            ]
          ]
        ]
      },
      "campusId": 171,
      "accessLevel": 0,
      "flags": [],
      "moh": null,
      "floorId": 8362,
      "floorName": "4",
      "buildingId": 2325,
      "buildingName": "Citadel",
      "identifierId": 1143848,
      "identifier": null,
      "title": "Hallway",
      "deleted": false,
      "infos": [
        {
          "id": 18434816,
          "poiId": 819608,
          "name": "Hallway",
          "priority": 20,
          "lang": null,
          "poiTypeId": null
        },
        {
          "id": 18404476,
          "poiId": 819608,
          "name": "T400VC",
          "priority": 20,
          "lang": null,
          "poiTypeId": null
        }
      ],
      "z": 4,
      "infoUrl": null,
      "description": null,
      "images": []
    },
    {
      "poiId": 819609,
      "nodeId": 1129615,
      "geometry": {
        "type": "Polygon",
        "coordinates": [
          [
            [
              763142.9224104023,
              6843435.217048639
            ],
            [
              763142.3032035746,
              6843428.229961113
            ],
            [
              763138.4262294358,
              6843428.573539246
            ],
            [
              763139.0416606121,
              6843435.518022577
            ],
            [
              763142.9224104023,
              6843435.217048639
            ]
          ]
        ]
      },
      "campusId": 171,
      "accessLevel": 0,
      "flags": [],
      "moh": null,
      "floorId": 8362,
      "floorName": "4",
      "buildingId": 2325,
      "buildingName": "Citadel",
      "identifierId": 1143849,
      "identifier": null,
      "title": "T400VB",
      "deleted": false,
      "infos": [
        {
          "id": 18404477,
          "poiId": 819609,
          "name": "T400VB",
          "priority": 20,
          "lang": null,
          "poiTypeId": null
        },
        {
          "id": 18434817,
          "poiId": 819609,
          "name": "Hallway",
          "priority": 20,
          "lang": null,
          "poiTypeId": null
        }
      ],
      "z": 4,
      "infoUrl": null,
      "description": null,
      "images": []
    },
    {
      "poiId": 819610,
      "nodeId": 1129843,
      "geometry": {
        "type": "Polygon",
        "coordinates": [
          [
            [
              763105.7668253325,
              6843442.331335551
            ],
            [
              763112.2852543769,
              6843441.753671221
            ],
            [
              763112.0700422483,
              6843439.325232262
            ],
            [
              763112.5672609266,
              6843438.637086792
            ],
            [
              763113.0304987415,
              6843437.565503587
            ],
            [
              763113.2219373358,
              6843436.818578813
            ],
            [
              763113.3869463702,
              6843435.773424703
            ],
            [
              763113.42036742,
              6843434.696993142
            ],
            [
              763113.3561813481,
              6843433.972721876
            ],
            [
              763113.1339777292,
              6843432.91894382
            ],
            [
              763112.6798752947,
              6843431.671022721
            ],
            [
              763111.8272332541,
              6843430.286665111
            ],
            [
              763111.5376277223,
              6843429.925880885
            ],
            [
              763111.2129693847,
              6843429.654080627
            ],
            [
              763111.0015329052,
              6843427.268245864
            ],
            [
              763104.4831038605,
              6843427.845910196
            ],
            [
              763104.70586729,
              6843430.359557538
            ],
            [
              763102.6182658316,
              6843430.544561149
            ],
            [
              763103.4564604415,
              6843440.00269182
            ],
            [
              763105.5440619002,
              6843439.817688211
            ],
            [
              763105.7668253325,
              6843442.331335551
            ]
          ]
        ]
      },
      "campusId": 171,
      "accessLevel": 0,
      "flags": [],
      "moh": null,
      "floorId": 8362,
      "floorName": "4",
      "buildingId": 2325,
      "buildingName": "Citadel",
      "identifierId": 1143851,
      "identifier": null,
      "title": "Meeting Room",
      "deleted": false,
      "infos": [
        {
          "id": 18434818,
          "poiId": 819610,
          "name": "Meeting Room",
          "priority": 20,
          "lang": null,
          "poiTypeId": null
        },
        {
          "id": 18404478,
          "poiId": 819610,
          "name": "H411",
          "priority": 20,
          "lang": null,
          "poiTypeId": null
        }
      ],
      "z": 4,
      "infoUrl": null,
      "description": null,
      "images": []
    },
    {
      "poiId": 819611,
      "nodeId": 1129754,
      "geometry": {
        "type": "Polygon",
        "coordinates": [
          [
            [
              763109.9154433069,
              6843392.24056418
            ],
            [
              763099.3070195634,
              6843393.180684565
            ],
            [
              763099.8205081545,
              6843398.974854708
            ],
            [
              763110.4289318951,
              6843398.034734324
            ],
            [
              763109.9154433069,
              6843392.24056418
            ]
          ]
        ]
      },
      "campusId": 171,
      "accessLevel": 0,
      "flags": [],
      "moh": null,
      "floorId": 8362,
      "floorName": "4",
      "buildingId": 2325,
      "buildingName": "Citadel",
      "identifierId": 1143853,
      "identifier": null,
      "title": "Room",
      "deleted": false,
      "infos": [
        {
          "id": 18434821,
          "poiId": 819611,
          "name": "Room",
          "priority": 20,
          "lang": null,
          "poiTypeId": null
        },
        {
          "id": 18404479,
          "poiId": 819611,
          "name": "H423",
          "priority": 20,
          "lang": null,
          "poiTypeId": null
        }
      ],
      "z": 4,
      "infoUrl": null,
      "description": null,
      "images": []
    },
    {
      "poiId": 819612,
      "nodeId": 1129850,
      "geometry": {
        "type": "Polygon",
        "coordinates": [
          [
            [
              763138.4892658294,
              6843425.476359988
            ],
            [
              763138.2884643684,
              6843425.791508206
            ],
            [
              763137.4260093347,
              6843428.528970119
            ],
            [
              763122.0545374681,
              6843429.891192666
            ],
            [
              763121.7944037523,
              6843426.955861615
            ],
            [
              763138.4892658294,
              6843425.476359988
            ]
          ]
        ]
      },
      "campusId": 171,
      "accessLevel": 0,
      "flags": [],
      "moh": null,
      "floorId": 8362,
      "floorName": "4",
      "buildingId": 2325,
      "buildingName": "Citadel",
      "identifierId": 1143854,
      "identifier": null,
      "title": "Hallway",
      "deleted": false,
      "infos": [
        {
          "id": 18434823,
          "poiId": 819612,
          "name": "Hallway",
          "priority": 20,
          "lang": null,
          "poiTypeId": null
        },
        {
          "id": 18404480,
          "poiId": 819612,
          "name": "H400VG",
          "priority": 20,
          "lang": null,
          "poiTypeId": null
        }
      ],
      "z": 4,
      "infoUrl": null,
      "description": null,
      "images": []
    },
    {
      "poiId": 819613,
      "nodeId": 1129583,
      "geometry": {
        "type": "Polygon",
        "coordinates": [
          [
            [
              763110.822706915,
              6843366.139254835
            ],
            [
              763118.4488428581,
              6843365.463425322
            ],
            [
              763117.5577891315,
              6843355.408835957
            ],
            [
              763110.2941157197,
              6843360.174667922
            ],
            [
              763110.822706915,
              6843366.139254835
            ]
          ]
        ]
      },
      "campusId": 171,
      "accessLevel": 0,
      "flags": [],
      "moh": null,
      "floorId": 8362,
      "floorName": "4",
      "buildingId": 2325,
      "buildingName": "Citadel",
      "identifierId": 1143855,
      "identifier": null,
      "title": "Room",
      "deleted": false,
      "infos": [
        {
          "id": 18434824,
          "poiId": 819613,
          "name": "Room",
          "priority": 20,
          "lang": null,
          "poiTypeId": null
        },
        {
          "id": 18404481,
          "poiId": 819613,
          "name": "H444",
          "priority": 20,
          "lang": null,
          "poiTypeId": null
        }
      ],
      "z": 4,
      "infoUrl": null,
      "description": null,
      "images": []
    },
    {
      "poiId": 819614,
      "nodeId": 1129711,
      "geometry": {
        "type": "Polygon",
        "coordinates": [
          [
            [
              763121.2503761954,
              6843397.075736019
            ],
            [
              763120.8652597535,
              6843392.730108414
            ],
            [
              763113.2391238104,
              6843393.405937925
            ],
            [
              763113.6242402522,
              6843397.751565534
            ],
            [
              763121.2503761954,
              6843397.075736019
            ]
          ]
        ]
      },
      "campusId": 171,
      "accessLevel": 0,
      "flags": [],
      "moh": null,
      "floorId": 8362,
      "floorName": "4",
      "buildingId": 2325,
      "buildingName": "Citadel",
      "identifierId": 1143856,
      "identifier": null,
      "title": "Room",
      "deleted": false,
      "infos": [
        {
          "id": 18434826,
          "poiId": 819614,
          "name": "Room",
          "priority": 20,
          "lang": null,
          "poiTypeId": null
        },
        {
          "id": 18404482,
          "poiId": 819614,
          "name": "H430",
          "priority": 20,
          "lang": null,
          "poiTypeId": null
        }
      ],
      "z": 4,
      "infoUrl": null,
      "description": null,
      "images": []
    },
    {
      "poiId": 819615,
      "nodeId": 1129612,
      "geometry": {
        "type": "Polygon",
        "coordinates": [
          [
            [
              763097.7012480972,
              6843372.154164294
            ],
            [
              763097.8522741544,
              6843373.858331984
            ],
            [
              763097.5966494856,
              6843373.880985484
            ],
            [
              763098.2234076159,
              6843380.953281394
            ],
            [
              763108.6188107998,
              6843380.03203893
            ],
            [
              763108.441355186,
              6843378.029641896
            ],
            [
              763108.6543757428,
              6843378.010763979
            ],
            [
              763108.0540471722,
              6843371.236697414
            ],
            [
              763097.7012480972,
              6843372.154164294
            ]
          ]
        ]
      },
      "campusId": 171,
      "accessLevel": 0,
      "flags": [],
      "moh": null,
      "floorId": 8362,
      "floorName": "4",
      "buildingId": 2325,
      "buildingName": "Citadel",
      "identifierId": 1143857,
      "identifier": null,
      "title": "Room",
      "deleted": false,
      "infos": [
        {
          "id": 18434828,
          "poiId": 819615,
          "name": "Room",
          "priority": 20,
          "lang": null,
          "poiTypeId": null
        },
        {
          "id": 18404483,
          "poiId": 819615,
          "name": "H429",
          "priority": 20,
          "lang": null,
          "poiTypeId": null
        }
      ],
      "z": 4,
      "infoUrl": null,
      "description": null,
      "images": []
    },
    {
      "poiId": 819616,
      "nodeId": 1129728,
      "geometry": {
        "type": "Polygon",
        "coordinates": [
          [
            [
              763120.8501571463,
              6843392.559691644
            ],
            [
              763120.4650407045,
              6843388.214064037
            ],
            [
              763112.8389047615,
              6843388.88989355
            ],
            [
              763113.2240212035,
              6843393.235521156
            ],
            [
              763120.8501571463,
              6843392.559691644
            ]
          ]
        ]
      },
      "campusId": 171,
      "accessLevel": 0,
      "flags": [],
      "moh": null,
      "floorId": 8362,
      "floorName": "4",
      "buildingId": 2325,
      "buildingName": "Citadel",
      "identifierId": 1143858,
      "identifier": null,
      "title": "Room",
      "deleted": false,
      "infos": [
        {
          "id": 18434830,
          "poiId": 819616,
          "name": "Room",
          "priority": 20,
          "lang": null,
          "poiTypeId": null
        },
        {
          "id": 18404484,
          "poiId": 819616,
          "name": "H432",
          "priority": 20,
          "lang": null,
          "poiTypeId": null
        }
      ],
      "z": 4,
      "infoUrl": null,
      "description": null,
      "images": []
    },
    {
      "poiId": 819617,
      "nodeId": 1129575,
      "geometry": {
        "type": "Polygon",
        "coordinates": [
          [
            [
              763117.6529426188,
              6843475.415252924
            ],
            [
              763120.1971371863,
              6843473.857755187
            ],
            [
              763117.4786681854,
              6843443.18273678
            ],
            [
              763114.6241927207,
              6843443.435700894
            ],
            [
              763116.8139423914,
              6843468.144686535
            ],
            [
              763114.3959184363,
              6843469.656602288
            ],
            [
              763116.5659456246,
              6843473.2893898
            ],
            [
              763117.4386370847,
              6843472.77111142
            ],
            [
              763117.6529426188,
              6843475.415252924
            ]
          ]
        ]
      },
      "campusId": 171,
      "accessLevel": 0,
      "flags": [],
      "moh": null,
      "floorId": 8362,
      "floorName": "4",
      "buildingId": 2325,
      "buildingName": "Citadel",
      "identifierId": 1143859,
      "identifier": null,
      "title": "Hallway",
      "deleted": false,
      "infos": [
        {
          "id": 18434832,
          "poiId": 819617,
          "name": "Hallway",
          "priority": 20,
          "lang": null,
          "poiTypeId": null
        },
        {
          "id": 18404485,
          "poiId": 819617,
          "name": "H400VF",
          "priority": 20,
          "lang": null,
          "poiTypeId": null
        }
      ],
      "z": 4,
      "infoUrl": null,
      "description": null,
      "images": []
    },
    {
      "poiId": 819618,
      "nodeId": 1129853,
      "geometry": {
        "type": "Polygon",
        "coordinates": [
          [
            [
              763119.4651570732,
              6843424.414197232
            ],
            [
              763123.6403635227,
              6843424.044189696
            ],
            [
              763123.4176036224,
              6843421.530542042
            ],
            [
              763119.2423971731,
              6843421.900549573
            ],
            [
              763119.4651570732,
              6843424.414197232
            ]
          ]
        ]
      },
      "campusId": 171,
      "accessLevel": 0,
      "flags": [],
      "moh": null,
      "floorId": 8362,
      "floorName": "4",
      "buildingId": 2325,
      "buildingName": "Citadel",
      "identifierId": 1143862,
      "identifier": null,
      "title": "H418",
      "deleted": false,
      "infos": [
        {
          "id": 18404486,
          "poiId": 819618,
          "name": "H418",
          "priority": 20,
          "lang": null,
          "poiTypeId": null
        },
        {
          "id": 18434834,
          "poiId": 819618,
          "name": "Toilet",
          "priority": 20,
          "lang": null,
          "poiTypeId": null
        }
      ],
      "z": 4,
      "infoUrl": null,
      "description": null,
      "images": []
    },
    {
      "poiId": 819619,
      "nodeId": 1129727,
      "geometry": {
        "type": "Polygon",
        "coordinates": [
          [
            [
              763112.0271397136,
              6843379.729992223
            ],
            [
              763119.6532756569,
              6843379.05416271
            ],
            [
              763118.864164517,
              6843370.149886535
            ],
            [
              763111.238028574,
              6843370.825716048
            ],
            [
              763112.0271397136,
              6843379.729992223
            ]
          ]
        ]
      },
      "campusId": 171,
      "accessLevel": 0,
      "flags": [],
      "moh": null,
      "floorId": 8362,
      "floorName": "4",
      "buildingId": 2325,
      "buildingName": "Citadel",
      "identifierId": 1143863,
      "identifier": null,
      "title": "Room",
      "deleted": false,
      "infos": [
        {
          "id": 18434839,
          "poiId": 819619,
          "name": "Room",
          "priority": 20,
          "lang": null,
          "poiTypeId": null
        },
        {
          "id": 18404487,
          "poiId": 819619,
          "name": "H440",
          "priority": 20,
          "lang": null,
          "poiTypeId": null
        }
      ],
      "z": 4,
      "infoUrl": null,
      "description": null,
      "images": []
    },
    {
      "poiId": 819620,
      "nodeId": 1129589,
      "geometry": {
        "type": "Polygon",
        "coordinates": [
          [
            [
              763120.3600023276,
              6843473.757444467
            ],
            [
              763127.6538809508,
              6843469.332446035
            ],
            [
              763126.8798724153,
              6843460.59858663
            ],
            [
              763119.2537364725,
              6843461.274416142
            ],
            [
              763120.3600023276,
              6843473.757444467
            ]
          ]
        ]
      },
      "campusId": 171,
      "accessLevel": 0,
      "flags": [],
      "moh": null,
      "floorId": 8362,
      "floorName": "4",
      "buildingId": 2325,
      "buildingName": "Citadel",
      "identifierId": 1143864,
      "identifier": null,
      "title": "H400",
      "deleted": false,
      "infos": [
        {
          "id": 18404488,
          "poiId": 819620,
          "name": "H400",
          "priority": 20,
          "lang": null,
          "poiTypeId": null
        },
        {
          "id": 18434842,
          "poiId": 819620,
          "name": "Room",
          "priority": 20,
          "lang": null,
          "poiTypeId": null
        }
      ],
      "z": 4,
      "infoUrl": null,
      "description": null,
      "images": []
    },
    {
      "poiId": 819621,
      "nodeId": 1129552,
      "geometry": {
        "type": "Polygon",
        "coordinates": [
          [
            [
              763114.8426683695,
              6843447.839035035
            ],
            [
              763104.2342446261,
              6843448.779155421
            ],
            [
              763104.6269123716,
              6843453.209991409
            ],
            [
              763115.235336112,
              6843452.269871026
            ],
            [
              763114.8426683695,
              6843447.839035035
            ]
          ]
        ]
      },
      "campusId": 171,
      "accessLevel": 0,
      "flags": [],
      "moh": null,
      "floorId": 8362,
      "floorName": "4",
      "buildingId": 2325,
      "buildingName": "Citadel",
      "identifierId": 1143865,
      "identifier": null,
      "title": "Room",
      "deleted": false,
      "infos": [
        {
          "id": 18434845,
          "poiId": 819621,
          "name": "Room",
          "priority": 20,
          "lang": null,
          "poiTypeId": null
        },
        {
          "id": 18404489,
          "poiId": 819621,
          "name": "H407",
          "priority": 20,
          "lang": null,
          "poiTypeId": null
        }
      ],
      "z": 4,
      "infoUrl": null,
      "description": null,
      "images": []
    },
    {
      "poiId": 819622,
      "nodeId": 1129571,
      "geometry": {
        "type": "Polygon",
        "coordinates": [
          [
            [
              763115.2504387193,
              6843452.440287795
            ],
            [
              763104.6420149758,
              6843453.380408179
            ],
            [
              763105.6954217148,
              6843465.266977813
            ],
            [
              763116.3038454552,
              6843464.326857429
            ],
            [
              763115.2504387193,
              6843452.440287795
            ]
          ]
        ]
      },
      "campusId": 171,
      "accessLevel": 0,
      "flags": [],
      "moh": null,
      "floorId": 8362,
      "floorName": "4",
      "buildingId": 2325,
      "buildingName": "Citadel",
      "identifierId": 1143866,
      "identifier": null,
      "title": "Room",
      "deleted": false,
      "infos": [
        {
          "id": 18434848,
          "poiId": 819622,
          "name": "Room",
          "priority": 20,
          "lang": null,
          "poiTypeId": null
        },
        {
          "id": 18404490,
          "poiId": 819622,
          "name": "H405",
          "priority": 20,
          "lang": null,
          "poiTypeId": null
        }
      ],
      "z": 4,
      "infoUrl": null,
      "description": null,
      "images": []
    },
    {
      "poiId": 819623,
      "nodeId": 1129818,
      "geometry": {
        "type": "Polygon",
        "coordinates": [
          [
            [
              763112.8238013157,
              6843388.719458797
            ],
            [
              763120.449937786,
              6843388.04363841
            ],
            [
              763119.6683796179,
              6843379.224579323
            ],
            [
              763112.0422414825,
              6843379.900391055
            ],
            [
              763112.8238013157,
              6843388.719458797
            ]
          ]
        ]
      },
      "campusId": 171,
      "accessLevel": 0,
      "flags": [],
      "moh": null,
      "floorId": 8362,
      "floorName": "4",
      "buildingId": 2325,
      "buildingName": "Citadel",
      "identifierId": 1143867,
      "identifier": null,
      "title": "Room",
      "deleted": false,
      "infos": [
        {
          "id": 18434850,
          "poiId": 819623,
          "name": "Room",
          "priority": 20,
          "lang": null,
          "poiTypeId": null
        },
        {
          "id": 18404491,
          "poiId": 819623,
          "name": "H436",
          "priority": 20,
          "lang": null,
          "poiTypeId": null
        }
      ],
      "z": 4,
      "infoUrl": null,
      "description": null,
      "images": []
    },
    {
      "poiId": 819624,
      "nodeId": 1129725,
      "geometry": {
        "type": "Polygon",
        "coordinates": [
          [
            [
              763116.2369910119,
              6843427.233666552
            ],
            [
              763119.5175075902,
              6843426.942946593
            ],
            [
              763119.3098500593,
              6843424.599715731
            ],
            [
              763116.029333481,
              6843424.890435686
            ],
            [
              763116.2369910119,
              6843427.233666552
            ]
          ]
        ]
      },
      "campusId": 171,
      "accessLevel": 0,
      "flags": [],
      "moh": null,
      "floorId": 8362,
      "floorName": "4",
      "buildingId": 2325,
      "buildingName": "Citadel",
      "identifierId": 1143868,
      "identifier": null,
      "title": "Toilet",
      "deleted": false,
      "infos": [
        {
          "id": 18434853,
          "poiId": 819624,
          "name": "Toilet",
          "priority": 20,
          "lang": null,
          "poiTypeId": null
        },
        {
          "id": 18404492,
          "poiId": 819624,
          "name": "H414",
          "priority": 20,
          "lang": null,
          "poiTypeId": null
        }
      ],
      "z": 4,
      "infoUrl": null,
      "description": null,
      "images": []
    },
    {
      "poiId": 819625,
      "nodeId": 1129797,
      "geometry": {
        "type": "Polygon",
        "coordinates": [
          [
            [
              763110.9877283018,
              6843404.340154771
            ],
            [
              763100.3793045584,
              6843405.280275158
            ],
            [
              763100.9078957536,
              6843411.244862068
            ],
            [
              763111.5163194943,
              6843410.304741686
            ],
            [
              763110.9877283018,
              6843404.340154771
            ]
          ]
        ]
      },
      "campusId": 171,
      "accessLevel": 0,
      "flags": [],
      "moh": null,
      "floorId": 8362,
      "floorName": "4",
      "buildingId": 2325,
      "buildingName": "Citadel",
      "identifierId": 1143869,
      "identifier": null,
      "title": "Room",
      "deleted": false,
      "infos": [
        {
          "id": 18434855,
          "poiId": 819625,
          "name": "Room",
          "priority": 20,
          "lang": null,
          "poiTypeId": null
        },
        {
          "id": 18404493,
          "poiId": 819625,
          "name": "H419",
          "priority": 20,
          "lang": null,
          "poiTypeId": null
        }
      ],
      "z": 4,
      "infoUrl": null,
      "description": null,
      "images": []
    },
    {
      "poiId": 819626,
      "nodeId": 1129576,
      "geometry": {
        "type": "Polygon",
        "coordinates": [
          [
            [
              763119.2386338654,
              6843461.103999374
            ],
            [
              763126.8647698082,
              6843460.428169858
            ],
            [
              763126.0718830167,
              6843451.481289493
            ],
            [
              763118.4457470736,
              6843452.157119006
            ],
            [
              763119.2386338654,
              6843461.103999374
            ]
          ]
        ]
      },
      "campusId": 171,
      "accessLevel": 0,
      "flags": [],
      "moh": null,
      "floorId": 8362,
      "floorName": "4",
      "buildingId": 2325,
      "buildingName": "Citadel",
      "identifierId": 1143870,
      "identifier": null,
      "title": "Room",
      "deleted": false,
      "infos": [
        {
          "id": 18434857,
          "poiId": 819626,
          "name": "Room",
          "priority": 20,
          "lang": null,
          "poiTypeId": null
        },
        {
          "id": 18404494,
          "poiId": 819626,
          "name": "H404",
          "priority": 20,
          "lang": null,
          "poiTypeId": null
        }
      ],
      "z": 4,
      "infoUrl": null,
      "description": null,
      "images": []
    },
    {
      "poiId": 819627,
      "nodeId": 1129672,
      "geometry": {
        "type": "Polygon",
        "coordinates": [
          [
            [
              763109.3830764598,
              6843386.233373076
            ],
            [
              763098.7746527191,
              6843387.173493463
            ],
            [
              763099.2919169591,
              6843393.010267794
            ],
            [
              763109.9003406998,
              6843392.070147409
            ],
            [
              763109.3830764598,
              6843386.233373076
            ]
          ]
        ]
      },
      "campusId": 171,
      "accessLevel": 0,
      "flags": [],
      "moh": null,
      "floorId": 8362,
      "floorName": "4",
      "buildingId": 2325,
      "buildingName": "Citadel",
      "identifierId": 1143871,
      "identifier": null,
      "title": "Room",
      "deleted": false,
      "infos": [
        {
          "id": 18434859,
          "poiId": 819627,
          "name": "Room",
          "priority": 20,
          "lang": null,
          "poiTypeId": null
        },
        {
          "id": 18404495,
          "poiId": 819627,
          "name": "H425",
          "priority": 20,
          "lang": null,
          "poiTypeId": null
        }
      ],
      "z": 4,
      "infoUrl": null,
      "description": null,
      "images": []
    },
    {
      "poiId": 819628,
      "nodeId": 1129592,
      "geometry": {
        "type": "Polygon",
        "coordinates": [
          [
            [
              763102.8355012556,
              6843368.965192701
            ],
            [
              763102.6578201298,
              6843367.034583707
            ],
            [
              763099.0364706591,
              6843367.355508335
            ],
            [
              763099.0100410994,
              6843367.057278986
            ],
            [
              763102.6313905702,
              6843366.73635436
            ],
            [
              763102.4747998331,
              6843364.861435087
            ],
            [
              763097.0971438691,
              6843365.337493465
            ],
            [
              763097.4596064034,
              6843369.427495928
            ],
            [
              763102.8355012556,
              6843368.965192701
            ]
          ]
        ]
      },
      "campusId": 171,
      "accessLevel": 0,
      "flags": [],
      "moh": null,
      "floorId": 8362,
      "floorName": "4",
      "buildingId": 2325,
      "buildingName": "Citadel",
      "identifierId": 1143872,
      "identifier": null,
      "title": "Hallway",
      "deleted": false,
      "infos": [
        {
          "id": 18434862,
          "poiId": 819628,
          "name": "Hallway",
          "priority": 20,
          "lang": null,
          "poiTypeId": null
        },
        {
          "id": 18404496,
          "poiId": 819628,
          "name": "H400VD",
          "priority": 20,
          "lang": null,
          "poiTypeId": null
        }
      ],
      "z": 4,
      "infoUrl": null,
      "description": null,
      "images": []
    },
    {
      "poiId": 819629,
      "nodeId": 1129558,
      "geometry": {
        "type": "Polygon",
        "coordinates": [
          [
            [
              763126.0567804126,
              6843451.310872722
            ],
            [
              763125.6905422265,
              6843447.178266076
            ],
            [
              763118.0644062837,
              6843447.854095589
            ],
            [
              763118.4306444695,
              6843451.986702235
            ],
            [
              763126.0567804126,
              6843451.310872722
            ]
          ]
        ]
      },
      "campusId": 171,
      "accessLevel": 0,
      "flags": [],
      "moh": null,
      "floorId": 8362,
      "floorName": "4",
      "buildingId": 2325,
      "buildingName": "Citadel",
      "identifierId": 1143873,
      "identifier": null,
      "title": "Room",
      "deleted": false,
      "infos": [
        {
          "id": 18434864,
          "poiId": 819629,
          "name": "Room",
          "priority": 20,
          "lang": null,
          "poiTypeId": null
        },
        {
          "id": 18404497,
          "poiId": 819629,
          "name": "H408",
          "priority": 20,
          "lang": null,
          "poiTypeId": null
        }
      ],
      "z": 4,
      "infoUrl": null,
      "description": null,
      "images": []
    },
    {
      "poiId": 819630,
      "nodeId": 1129603,
      "geometry": {
        "type": "Polygon",
        "coordinates": [
          [
            [
              763108.4604092559,
              6843473.10688221
            ],
            [
              763116.6342628759,
              6843468.055265016
            ],
            [
              763116.3189480625,
              6843464.497274197
            ],
            [
              763105.710524319,
              6843465.437394579
            ],
            [
              763106.0767625048,
              6843469.570001227
            ],
            [
              763106.3323871734,
              6843469.547347722
            ],
            [
              763106.4871888794,
              6843471.294119607
            ],
            [
              763108.2765615601,
              6843471.135545082
            ],
            [
              763108.4604092559,
              6843473.10688221
            ]
          ]
        ]
      },
      "campusId": 171,
      "accessLevel": 0,
      "flags": [],
      "moh": null,
      "floorId": 8362,
      "floorName": "4",
      "buildingId": 2325,
      "buildingName": "Citadel",
      "identifierId": 1143874,
      "identifier": null,
      "title": "Room",
      "deleted": false,
      "infos": [
        {
          "id": 18434866,
          "poiId": 819630,
          "name": "Room",
          "priority": 20,
          "lang": null,
          "poiTypeId": null
        },
        {
          "id": 18404498,
          "poiId": 819630,
          "name": "H401",
          "priority": 20,
          "lang": null,
          "poiTypeId": null
        }
      ],
      "z": 4,
      "infoUrl": null,
      "description": null,
      "images": []
    },
    {
      "poiId": 819631,
      "nodeId": 1129833,
      "geometry": {
        "type": "Polygon",
        "coordinates": [
          [
            [
              763118.1269578463,
              6843447.590919517
            ],
            [
              763121.194456621,
              6843447.319077231
            ],
            [
              763121.0207794091,
              6843445.359284141
            ],
            [
              763117.9532806346,
              6843445.631126427
            ],
            [
              763118.1269578463,
              6843447.590919517
            ]
          ]
        ]
      },
      "campusId": 171,
      "accessLevel": 0,
      "flags": [],
      "moh": null,
      "floorId": 8362,
      "floorName": "4",
      "buildingId": 2325,
      "buildingName": "Citadel",
      "identifierId": 1143875,
      "identifier": null,
      "title": "Technical Room",
      "deleted": false,
      "infos": [
        {
          "id": 18434869,
          "poiId": 819631,
          "name": "Technical Room",
          "priority": 20,
          "lang": null,
          "poiTypeId": null
        },
        {
          "id": 18404499,
          "poiId": 819631,
          "name": "H410",
          "priority": 20,
          "lang": null,
          "poiTypeId": null
        }
      ],
      "z": 4,
      "infoUrl": null,
      "description": null,
      "images": []
    },
    {
      "poiId": 819632,
      "nodeId": 1129796,
      "geometry": {
        "type": "Polygon",
        "coordinates": [
          [
            [
              763122.0545899395,
              6843406.150428966
            ],
            [
              763121.6694734974,
              6843401.804801355
            ],
            [
              763114.0433375546,
              6843402.48063087
            ],
            [
              763114.4284539964,
              6843406.82625848
            ],
            [
              763122.0545899395,
              6843406.150428966
            ]
          ]
        ]
      },
      "campusId": 171,
      "accessLevel": 0,
      "flags": [],
      "moh": null,
      "floorId": 8362,
      "floorName": "4",
      "buildingId": 2325,
      "buildingName": "Citadel",
      "identifierId": 1143876,
      "identifier": null,
      "title": "H426",
      "deleted": false,
      "infos": [
        {
          "id": 18404500,
          "poiId": 819632,
          "name": "H426",
          "priority": 20,
          "lang": null,
          "poiTypeId": null
        },
        {
          "id": 18434871,
          "poiId": 819632,
          "name": "Room",
          "priority": 20,
          "lang": null,
          "poiTypeId": null
        }
      ],
      "z": 4,
      "infoUrl": null,
      "description": null,
      "images": []
    },
    {
      "poiId": 819633,
      "nodeId": 1129807,
      "geometry": {
        "type": "Polygon",
        "coordinates": [
          [
            [
              763122.4736872446,
              6843410.879494299
            ],
            [
              763114.8475513015,
              6843411.555323816
            ],
            [
              763115.2288920914,
              6843415.858347228
            ],
            [
              763122.8550280347,
              6843415.182517713
            ],
            [
              763122.4736872446,
              6843410.879494299
            ]
          ]
        ]
      },
      "campusId": 171,
      "accessLevel": 0,
      "flags": [],
      "moh": null,
      "floorId": 8362,
      "floorName": "4",
      "buildingId": 2325,
      "buildingName": "Citadel",
      "identifierId": 1143877,
      "identifier": null,
      "title": "Room",
      "deleted": false,
      "infos": [
        {
          "id": 18434874,
          "poiId": 819633,
          "name": "Room",
          "priority": 20,
          "lang": null,
          "poiTypeId": null
        },
        {
          "id": 18404501,
          "poiId": 819633,
          "name": "H422",
          "priority": 20,
          "lang": null,
          "poiTypeId": null
        }
      ],
      "z": 4,
      "infoUrl": null,
      "description": null,
      "images": []
    },
    {
      "poiId": 819634,
      "nodeId": 1129676,
      "geometry": {
        "type": "Polygon",
        "coordinates": [
          [
            [
              763146.8836504687,
              6843427.826944876
            ],
            [
              763145.4977895485,
              6843427.949760118
            ],
            [
              763145.5679995101,
              6843428.742004528
            ],
            [
              763146.9538604304,
              6843428.619189291
            ],
            [
              763146.8836504687,
              6843427.826944876
            ]
          ]
        ]
      },
      "campusId": 171,
      "accessLevel": 0,
      "flags": [],
      "moh": null,
      "floorId": 8362,
      "floorName": "4",
      "buildingId": 2325,
      "buildingName": "Citadel",
      "identifierId": 1143879,
      "identifier": null,
      "title": "Technical Room",
      "deleted": false,
      "infos": [
        {
          "id": 18434877,
          "poiId": 819634,
          "name": "Technical Room",
          "priority": 20,
          "lang": null,
          "poiTypeId": null
        },
        {
          "id": 18404502,
          "poiId": 819634,
          "name": "T401",
          "priority": 20,
          "lang": null,
          "poiTypeId": null
        }
      ],
      "z": 4,
      "infoUrl": null,
      "description": null,
      "images": []
    },
    {
      "poiId": 819635,
      "nodeId": 1129821,
      "geometry": {
        "type": "Polygon",
        "coordinates": [
          [
            [
              763113.0044382747,
              6843425.158502438
            ],
            [
              763115.8589137391,
              6843424.905538316
            ],
            [
              763110.1318315362,
              6843360.281534133
            ],
            [
              763107.656996277,
              6843361.911227604
            ],
            [
              763107.8759840577,
              6843364.38227075
            ],
            [
              763105.7457784871,
              6843364.571049947
            ],
            [
              763106.3272288073,
              6843371.132095613
            ],
            [
              763108.2018097091,
              6843370.965969922
            ],
            [
              763108.8398947947,
              6843378.166078407
            ],
            [
              763108.6268742351,
              6843378.18495633
            ],
            [
              763108.7892272474,
              6843380.016936593
            ],
            [
              763109.0022478043,
              6843379.998058675
            ],
            [
              763113.0044382747,
              6843425.158502438
            ]
          ]
        ]
      },
      "campusId": 171,
      "accessLevel": 0,
      "flags": [],
      "moh": null,
      "floorId": 8362,
      "floorName": "4",
      "buildingId": 2325,
      "buildingName": "Citadel",
      "identifierId": 1143880,
      "identifier": null,
      "title": "Hallway",
      "deleted": false,
      "infos": [
        {
          "id": 18434879,
          "poiId": 819635,
          "name": "Hallway",
          "priority": 20,
          "lang": null,
          "poiTypeId": null
        },
        {
          "id": 18404503,
          "poiId": 819635,
          "name": "H400VC",
          "priority": 20,
          "lang": null,
          "poiTypeId": null
        }
      ],
      "z": 4,
      "infoUrl": null,
      "description": null,
      "images": []
    },
    {
      "poiId": 819636,
      "nodeId": 1129820,
      "geometry": {
        "type": "Polygon",
        "coordinates": [
          [
            [
              763121.3648730663,
              6843447.303974896
            ],
            [
              763125.6678883191,
              6843446.922640924
            ],
            [
              763125.2865475289,
              6843442.619617511
            ],
            [
              763120.983532276,
              6843443.00095148
            ],
            [
              763121.3648730663,
              6843447.303974896
            ]
          ]
        ]
      },
      "campusId": 171,
      "accessLevel": 0,
      "flags": [],
      "moh": null,
      "floorId": 8362,
      "floorName": "4",
      "buildingId": 2325,
      "buildingName": "Citadel",
      "identifierId": 1143881,
      "identifier": null,
      "title": "Technical Room",
      "deleted": false,
      "infos": [
        {
          "id": 18434880,
          "poiId": 819636,
          "name": "Technical Room",
          "priority": 20,
          "lang": null,
          "poiTypeId": null
        },
        {
          "id": 18404504,
          "poiId": 819636,
          "name": "H412",
          "priority": 20,
          "lang": null,
          "poiTypeId": null
        }
      ],
      "z": 4,
      "infoUrl": null,
      "description": null,
      "images": []
    },
    {
      "poiId": 819637,
      "nodeId": 1129806,
      "geometry": {
        "type": "Polygon",
        "coordinates": [
          [
            [
              763119.1097372406,
              6843422.341693833
            ],
            [
              763118.8869738083,
              6843419.828046495
            ],
            [
              763115.6064572299,
              6843420.118766455
            ],
            [
              763115.8292206622,
              6843422.632413791
            ],
            [
              763119.1097372406,
              6843422.341693833
            ]
          ]
        ]
      },
      "campusId": 171,
      "accessLevel": 0,
      "flags": [],
      "moh": null,
      "floorId": 8362,
      "floorName": "4",
      "buildingId": 2325,
      "buildingName": "Citadel",
      "identifierId": 1143883,
      "identifier": null,
      "title": "Toilet",
      "deleted": false,
      "infos": [
        {
          "id": 18434883,
          "poiId": 819637,
          "name": "Toilet",
          "priority": 20,
          "lang": null,
          "poiTypeId": null
        },
        {
          "id": 18404505,
          "poiId": 819637,
          "name": "H416",
          "priority": 20,
          "lang": null,
          "poiTypeId": null
        }
      ],
      "z": 4,
      "infoUrl": null,
      "description": null,
      "images": []
    },
    {
      "poiId": 819638,
      "nodeId": 1129842,
      "geometry": {
        "type": "Polygon",
        "coordinates": [
          [
            [
              763110.9726256946,
              6843404.169738003
            ],
            [
              763110.4440345024,
              6843398.205151093
            ],
            [
              763099.8356107587,
              6843399.145271482
            ],
            [
              763100.3642019541,
              6843405.109858385
            ],
            [
              763110.9726256946,
              6843404.169738003
            ]
          ]
        ]
      },
      "campusId": 171,
      "accessLevel": 0,
      "flags": [],
      "moh": null,
      "floorId": 8362,
      "floorName": "4",
      "buildingId": 2325,
      "buildingName": "Citadel",
      "identifierId": 1143884,
      "identifier": null,
      "title": "Room",
      "deleted": false,
      "infos": [
        {
          "id": 18434886,
          "poiId": 819638,
          "name": "Room",
          "priority": 20,
          "lang": null,
          "poiTypeId": null
        },
        {
          "id": 18404506,
          "poiId": 819638,
          "name": "H421",
          "priority": 20,
          "lang": null,
          "poiTypeId": null
        }
      ],
      "z": 4,
      "infoUrl": null,
      "description": null,
      "images": []
    },
    {
      "poiId": 819639,
      "nodeId": 1129653,
      "geometry": {
        "type": "Polygon",
        "coordinates": [
          [
            [
              763111.5314221013,
              6843410.475158455
            ],
            [
              763100.9229983579,
              6843411.415278837
            ],
            [
              763101.4251599936,
              6843417.081636402
            ],
            [
              763112.0335837344,
              6843416.14151602
            ],
            [
              763111.5314221013,
              6843410.475158455
            ]
          ]
        ]
      },
      "campusId": 171,
      "accessLevel": 0,
      "flags": [],
      "moh": null,
      "floorId": 8362,
      "floorName": "4",
      "buildingId": 2325,
      "buildingName": "Citadel",
      "identifierId": 1143885,
      "identifier": null,
      "title": "Room",
      "deleted": false,
      "infos": [
        {
          "id": 18434888,
          "poiId": 819639,
          "name": "Room",
          "priority": 20,
          "lang": null,
          "poiTypeId": null
        },
        {
          "id": 18404507,
          "poiId": 819639,
          "name": "H417",
          "priority": 20,
          "lang": null,
          "poiTypeId": null
        }
      ],
      "z": 4,
      "infoUrl": null,
      "description": null,
      "images": []
    },
    {
      "poiId": 819640,
      "nodeId": 1129677,
      "geometry": {
        "type": "Polygon",
        "coordinates": [
          [
            [
              763150.7109947134,
              6843443.157519937
            ],
            [
              763153.8259424465,
              6843442.452084808
            ],
            [
              763156.6173037819,
              6843441.00242772
            ],
            [
              763158.9610420438,
              6843438.862479624
            ],
            [
              763160.655463625,
              6843436.178931009
            ],
            [
              763161.6342385609,
              6843433.172354005
            ],
            [
              763161.7846571258,
              6843430.024492131
            ],
            [
              763161.0792178089,
              6843426.909537747
            ],
            [
              763159.5869542819,
              6843424.121944609
            ],
            [
              763157.4470058357,
              6843421.778198538
            ],
            [
              763154.7634589506,
              6843420.083769343
            ],
            [
              763151.7606611355,
              6843419.147591662
            ],
            [
              763148.5739760299,
              6843419.043547139
            ],
            [
              763145.5442365205,
              6843419.741431097
            ],
            [
              763142.7528751823,
              6843421.191088177
            ],
            [
              763142.2382881371,
              6843421.68325018
            ],
            [
              763142.883576428,
              6843428.979898577
            ],
            [
              763144.2164058967,
              6843428.861782992
            ],
            [
              763144.1313311526,
              6843427.901805375
            ],
            [
              763147.0365185748,
              6843427.644347152
            ],
            [
              763147.1364581069,
              6843428.772057983
            ],
            [
              763144.3990035731,
              6843429.014651682
            ],
            [
              763144.939240659,
              6843435.11065005
            ],
            [
              763144.7715077677,
              6843435.125514568
            ],
            [
              763144.6931528666,
              6843434.241363185
            ],
            [
              763143.3603233952,
              6843434.359478769
            ],
            [
              763144.0060488456,
              6843441.630541201
            ],
            [
              763144.5991687129,
              6843442.024538182
            ],
            [
              763147.601966528,
              6843442.960715859
            ],
            [
              763150.7109947134,
              6843443.157519937
            ]
          ]
        ]
      },
      "campusId": 171,
      "accessLevel": 0,
      "flags": [],
      "moh": null,
      "floorId": 8362,
      "floorName": "4",
      "buildingId": 2325,
      "buildingName": "Citadel",
      "identifierId": 1143886,
      "identifier": null,
      "title": "Canteen",
      "deleted": false,
      "infos": [
        {
          "id": 18434891,
          "poiId": 819640,
          "name": "Canteen",
          "priority": 20,
          "lang": null,
          "poiTypeId": null
        },
        {
          "id": 18404508,
          "poiId": 819640,
          "name": "T400",
          "priority": 20,
          "lang": null,
          "poiTypeId": null
        }
      ],
      "z": 4,
      "infoUrl": null,
      "description": null,
      "images": []
    },
    {
      "poiId": 819641,
      "nodeId": 1129845,
      "geometry": {
        "type": "Polygon",
        "coordinates": [
          [
            [
              763116.7132829013,
              6843434.061664059
            ],
            [
              763121.1516141092,
              6843430.362051448
            ],
            [
              763122.08890456,
              6843430.278988604
            ],
            [
              763121.5678646686,
              6843424.399610078
            ],
            [
              763119.4802632098,
              6843424.584613689
            ],
            [
              763119.6879240377,
              6843426.927844259
            ],
            [
              763120.1565692633,
              6843426.88631284
            ],
            [
              763120.1716718678,
              6843427.056729606
            ],
            [
              763116.0816771715,
              6843427.419185658
            ],
            [
              763115.8740163462,
              6843425.075955085
            ],
            [
              763113.0195408815,
              6843425.328919205
            ],
            [
              763113.227201707,
              6843427.672149779
            ],
            [
              763111.224808472,
              6843427.849602217
            ],
            [
              763111.377130556,
              6843429.568394213
            ],
            [
              763111.6604366219,
              6843429.805574794
            ],
            [
              763111.9673176217,
              6843430.187880445
            ],
            [
              763112.8346894436,
              6843431.596144532
            ],
            [
              763113.2988824158,
              6843432.871811238
            ],
            [
              763113.5256944302,
              6843433.947426064
            ],
            [
              763113.5916872133,
              6843434.692084111
            ],
            [
              763113.5576191952,
              6843435.789486728
            ],
            [
              763113.3896665731,
              6843436.853236741
            ],
            [
              763113.192885497,
              6843437.621024632
            ],
            [
              763112.7192942693,
              6843438.716546134
            ],
            [
              763112.4808326707,
              6843439.101075542
            ],
            [
              763112.2467139529,
              6843439.380713836
            ],
            [
              763112.3990360537,
              6843441.099506003
            ],
            [
              763114.4014292884,
              6843440.92205356
            ],
            [
              763114.6090901163,
              6843443.265284131
            ],
            [
              763117.4635655814,
              6843443.012320012
            ],
            [
              763117.2559047531,
              6843440.669089443
            ],
            [
              763120.749441891,
              6843440.359491563
            ],
            [
              763120.9608783678,
              6843442.745326327
            ],
            [
              763123.1762921622,
              6843442.548995962
            ],
            [
              763122.9648556823,
              6843440.163161201
            ],
            [
              763123.0926680181,
              6843440.151834453
            ],
            [
              763122.8283724218,
              6843437.169540997
            ],
            [
              763122.78576831,
              6843437.173316577
            ],
            [
              763122.7555630985,
              6843436.832483042
            ],
            [
              763121.7330644238,
              6843436.923097053
            ],
            [
              763116.7132829013,
              6843434.061664059
            ]
          ]
        ]
      },
      "campusId": 171,
      "accessLevel": 0,
      "flags": [],
      "moh": null,
      "floorId": 8362,
      "floorName": "4",
      "buildingId": 2325,
      "buildingName": "Citadel",
      "identifierId": 1143887,
      "identifier": null,
      "title": "H400VA",
      "deleted": false,
      "infos": [
        {
          "id": 18404509,
          "poiId": 819641,
          "name": "H400VA",
          "priority": 20,
          "lang": null,
          "poiTypeId": null
        },
        {
          "id": 18434893,
          "poiId": 819641,
          "name": "Hallway",
          "priority": 20,
          "lang": null,
          "poiTypeId": null
        }
      ],
      "z": 4,
      "infoUrl": null,
      "description": null,
      "images": []
    },
    {
      "poiId": 819642,
      "nodeId": 1129708,
      "geometry": {
        "type": "Polygon",
        "coordinates": [
          [
            [
              763118.84906191,
              6843369.979469761
            ],
            [
              763118.4639454624,
              6843365.633842088
            ],
            [
              763110.8378095193,
              6843366.309671606
            ],
            [
              763111.2229259668,
              6843370.655299277
            ],
            [
              763118.84906191,
              6843369.979469761
            ]
          ]
        ]
      },
      "campusId": 171,
      "accessLevel": 0,
      "flags": [],
      "moh": null,
      "floorId": 8362,
      "floorName": "4",
      "buildingId": 2325,
      "buildingName": "Citadel",
      "identifierId": 1143888,
      "identifier": null,
      "title": "Room",
      "deleted": false,
      "infos": [
        {
          "id": 18434894,
          "poiId": 819642,
          "name": "Room",
          "priority": 20,
          "lang": null,
          "poiTypeId": null
        },
        {
          "id": 18404510,
          "poiId": 819642,
          "name": "H442",
          "priority": 20,
          "lang": null,
          "poiTypeId": null
        }
      ],
      "z": 4,
      "infoUrl": null,
      "description": null,
      "images": []
    },
    {
      "poiId": 819643,
      "nodeId": 1129577,
      "geometry": {
        "type": "Polygon",
        "coordinates": [
          [
            [
              763109.3679738553,
              6843386.062956305
            ],
            [
              763108.8469339637,
              6843380.183577779
            ],
            [
              763098.2385102202,
              6843381.123698163
            ],
            [
              763098.7595501121,
              6843387.00307669
            ],
            [
              763109.3679738553,
              6843386.062956305
            ]
          ]
        ]
      },
      "campusId": 171,
      "accessLevel": 0,
      "flags": [],
      "moh": null,
      "floorId": 8362,
      "floorName": "4",
      "buildingId": 2325,
      "buildingName": "Citadel",
      "identifierId": 1143889,
      "identifier": null,
      "title": "H427",
      "deleted": false,
      "infos": [
        {
          "id": 18404511,
          "poiId": 819643,
          "name": "H427",
          "priority": 20,
          "lang": null,
          "poiTypeId": null
        },
        {
          "id": 18434897,
          "poiId": 819643,
          "name": "Room",
          "priority": 20,
          "lang": null,
          "poiTypeId": null
        }
      ],
      "z": 4,
      "infoUrl": null,
      "description": null,
      "images": []
    },
    {
      "poiId": 819644,
      "nodeId": 1129848,
      "geometry": {
        "type": "Polygon",
        "coordinates": [
          [
            [
              763123.0926680181,
              6843440.151834453
            ],
            [
              763139.7508755807,
              6843438.675581155
            ],
            [
              763139.3922100185,
              6843438.276321895
            ],
            [
              763137.8836956326,
              6843435.373135515
            ],
            [
              763137.15082081,
              6843432.164125965
            ],
            [
              763137.311456294,
              6843428.929156169
            ],
            [
              763137.4260197327,
              6843428.528969192
            ],
            [
              763122.0545374681,
              6843429.891192666
            ],
            [
              763122.08890456,
              6843430.278988604
            ],
            [
              763121.1516141092,
              6843430.362051448
            ],
            [
              763116.7132829013,
              6843434.061664059
            ],
            [
              763121.7330644238,
              6843436.923097053
            ],
            [
              763122.7555630985,
              6843436.832483042
            ],
            [
              763122.78576831,
              6843437.173316577
            ],
            [
              763122.8283724218,
              6843437.169540997
            ],
            [
              763123.0926680181,
              6843440.151834453
            ]
          ]
        ]
      },
      "campusId": 171,
      "accessLevel": 0,
      "flags": [],
      "moh": null,
      "floorId": 8362,
      "floorName": "4",
      "buildingId": 2325,
      "buildingName": "Citadel",
      "identifierId": 1143890,
      "identifier": null,
      "title": "Hallway",
      "deleted": false,
      "infos": [
        {
          "id": 18434900,
          "poiId": 819644,
          "name": "Hallway",
          "priority": 20,
          "lang": null,
          "poiTypeId": null
        },
        {
          "id": 18404512,
          "poiId": 819644,
          "name": "H400VB",
          "priority": 20,
          "lang": null,
          "poiTypeId": null
        }
      ],
      "z": 4,
      "infoUrl": null,
      "description": null,
      "images": []
    },
    {
      "poiId": 819645,
      "nodeId": 1129801,
      "geometry": {
        "type": "Polygon",
        "coordinates": [
          [
            [
              763115.2439946958,
              6843416.028764001
            ],
            [
              763115.5913546255,
              6843419.948349682
            ],
            [
              763123.2174905686,
              6843419.272520171
            ],
            [
              763122.8701306389,
              6843415.352934485
            ],
            [
              763115.2439946958,
              6843416.028764001
            ]
          ]
        ]
      },
      "campusId": 171,
      "accessLevel": 0,
      "flags": [],
      "moh": null,
      "floorId": 8362,
      "floorName": "4",
      "buildingId": 2325,
      "buildingName": "Citadel",
      "identifierId": 1143891,
      "identifier": null,
      "title": "Room",
      "deleted": false,
      "infos": [
        {
          "id": 18434901,
          "poiId": 819645,
          "name": "Room",
          "priority": 20,
          "lang": null,
          "poiTypeId": null
        },
        {
          "id": 18404513,
          "poiId": 819645,
          "name": "H420",
          "priority": 20,
          "lang": null,
          "poiTypeId": null
        }
      ],
      "z": 4,
      "infoUrl": null,
      "description": null,
      "images": []
    },
    {
      "poiId": 819646,
      "nodeId": 1129829,
      "geometry": {
        "type": "Polygon",
        "coordinates": [
          [
            [
              763104.2191420217,
              6843448.608738652
            ],
            [
              763114.8275657624,
              6843447.668618268
            ],
            [
              763114.2461154506,
              6843441.107572664
            ],
            [
              763112.4141386581,
              6843441.26992277
            ],
            [
              763112.4707734289,
              6843441.908985652
            ],
            [
              763103.6943264782,
              6843442.686755933
            ],
            [
              763104.2191420217,
              6843448.608738652
            ]
          ]
        ]
      },
      "campusId": 171,
      "accessLevel": 0,
      "flags": [],
      "moh": null,
      "floorId": 8362,
      "floorName": "4",
      "buildingId": 2325,
      "buildingName": "Citadel",
      "identifierId": 1143892,
      "identifier": null,
      "title": "Room",
      "deleted": false,
      "infos": [
        {
          "id": 18434904,
          "poiId": 819646,
          "name": "Room",
          "priority": 20,
          "lang": null,
          "poiTypeId": null
        },
        {
          "id": 18404514,
          "poiId": 819646,
          "name": "H409",
          "priority": 20,
          "lang": null,
          "poiTypeId": null
        }
      ],
      "z": 4,
      "infoUrl": null,
      "description": null,
      "images": []
    },
    {
      "poiId": 819647,
      "nodeId": 1129567,
      "geometry": {
        "type": "Polygon",
        "coordinates": [
          [
            [
              763113.6302863347,
              6843475.046433065
            ],
            [
              763112.5968709895,
              6843473.371944756
            ],
            [
              763109.5024332738,
              6843475.277848434
            ],
            [
              763109.3519670332,
              6843475.033550033
            ],
            [
              763112.489008858,
              6843473.12387077
            ],
            [
              763111.4594099774,
              6843471.469722797
            ],
            [
              763106.7590357793,
              6843474.361621445
            ],
            [
              763107.1630304772,
              6843478.920270015
            ],
            [
              763113.6302863347,
              6843475.046433065
            ]
          ]
        ]
      },
      "campusId": 171,
      "accessLevel": 0,
      "flags": [],
      "moh": null,
      "floorId": 8362,
      "floorName": "4",
      "buildingId": 2325,
      "buildingName": "Citadel",
      "identifierId": 1143893,
      "identifier": null,
      "title": "Hallway",
      "deleted": false,
      "infos": [
        {
          "id": 18434907,
          "poiId": 819647,
          "name": "Hallway",
          "priority": 20,
          "lang": null,
          "poiTypeId": null
        },
        {
          "id": 18404515,
          "poiId": 819647,
          "name": "H400VE",
          "priority": 20,
          "lang": null,
          "poiTypeId": null
        }
      ],
      "z": 4,
      "infoUrl": null,
      "description": null,
      "images": []
    },
    {
      "poiId": 819648,
      "nodeId": 1129802,
      "geometry": {
        "type": "Polygon",
        "coordinates": [
          [
            [
              763111.1568467456,
              6843427.082726758
            ],
            [
              763111.2097058648,
              6843427.679185446
            ],
            [
              763113.0416826548,
              6843427.516835346
            ],
            [
              763112.0486863416,
              6843416.311932793
            ],
            [
              763101.4402625981,
              6843417.25205317
            ],
            [
              763102.3803997949,
              6843427.860497039
            ],
            [
              763111.1568467456,
              6843427.082726758
            ]
          ]
        ]
      },
      "campusId": 171,
      "accessLevel": 0,
      "flags": [],
      "moh": null,
      "floorId": 8362,
      "floorName": "4",
      "buildingId": 2325,
      "buildingName": "Citadel",
      "identifierId": 1143894,
      "identifier": null,
      "title": "Room",
      "deleted": false,
      "infos": [
        {
          "id": 18434908,
          "poiId": 819648,
          "name": "Room",
          "priority": 20,
          "lang": null,
          "poiTypeId": null
        },
        {
          "id": 18404516,
          "poiId": 819648,
          "name": "H415",
          "priority": 20,
          "lang": null,
          "poiTypeId": null
        }
      ],
      "z": 4,
      "infoUrl": null,
      "description": null,
      "images": []
    },
    {
      "poiId": 819649,
      "nodeId": 1129847,
      "geometry": {
        "type": "Polygon",
        "coordinates": [
          [
            [
              763113.6393428567,
              6843397.921982302
            ],
            [
              763114.0282349503,
              6843402.310214102
            ],
            [
              763121.6543708933,
              6843401.634384589
            ],
            [
              763121.2654787999,
              6843397.246152787
            ],
            [
              763113.6393428567,
              6843397.921982302
            ]
          ]
        ]
      },
      "campusId": 171,
      "accessLevel": 0,
      "flags": [],
      "moh": null,
      "floorId": 8362,
      "floorName": "4",
      "buildingId": 2325,
      "buildingName": "Citadel",
      "identifierId": 1143895,
      "identifier": null,
      "title": "Room",
      "deleted": false,
      "infos": [
        {
          "id": 18434912,
          "poiId": 819649,
          "name": "Room",
          "priority": 20,
          "lang": null,
          "poiTypeId": null
        },
        {
          "id": 18404517,
          "poiId": 819649,
          "name": "H428",
          "priority": 20,
          "lang": null,
          "poiTypeId": null
        }
      ],
      "z": 4,
      "infoUrl": null,
      "description": null,
      "images": []
    },
    {
      "poiId": 819650,
      "nodeId": 1129799,
      "geometry": {
        "type": "Polygon",
        "coordinates": [
          [
            [
              763122.4585846374,
              6843410.709077532
            ],
            [
              763122.0696925466,
              6843406.320845734
            ],
            [
              763114.4435566036,
              6843406.996675247
            ],
            [
              763114.8324486943,
              6843411.384907045
            ],
            [
              763122.4585846374,
              6843410.709077532
            ]
          ]
        ]
      },
      "campusId": 171,
      "accessLevel": 0,
      "flags": [],
      "moh": null,
      "floorId": 8362,
      "floorName": "4",
      "buildingId": 2325,
      "buildingName": "Citadel",
      "identifierId": 1143899,
      "identifier": null,
      "title": "Room",
      "deleted": false,
      "infos": [
        {
          "id": 18434914,
          "poiId": 819650,
          "name": "Room",
          "priority": 20,
          "lang": null,
          "poiTypeId": null
        },
        {
          "id": 18404518,
          "poiId": 819650,
          "name": "H424",
          "priority": 20,
          "lang": null,
          "poiTypeId": null
        }
      ],
      "z": 4,
      "infoUrl": null,
      "description": null,
      "images": []
    },
    {
      "poiId": 819651,
      "nodeId": 1129808,
      "geometry": {
        "type": "Polygon",
        "coordinates": [
          [
            [
              763144.2312706821,
              6843429.029516203
            ],
            [
              763142.8988780724,
              6843429.147593072
            ],
            [
              763143.3458954692,
              6843434.191706846
            ],
            [
              763144.6782880813,
              6843434.073629981
            ],
            [
              763144.2312706821,
              6843429.029516203
            ]
          ]
        ]
      },
      "campusId": 171,
      "accessLevel": 0,
      "flags": [],
      "moh": null,
      "floorId": 8362,
      "floorName": "4",
      "buildingId": 2325,
      "buildingName": "Citadel",
      "identifierId": 1143900,
      "identifier": null,
      "title": "Hallway",
      "deleted": false,
      "infos": [
        {
          "id": 18434916,
          "poiId": 819651,
          "name": "Hallway",
          "priority": 20,
          "lang": null,
          "poiTypeId": null
        },
        {
          "id": 18404519,
          "poiId": 819651,
          "name": "T400VD",
          "priority": 20,
          "lang": null,
          "poiTypeId": null
        }
      ],
      "z": 4,
      "infoUrl": null,
      "description": null,
      "images": []
    },
    {
      "poiId": 819652,
      "nodeId": 1129679,
      "geometry": {
        "type": "Polygon",
        "coordinates": [
          [
            [
              763143.8164985743,
              6843441.511798645
            ],
            [
              763143.2783459,
              6843435.357260734
            ],
            [
              763138.6771018663,
              6843435.765023795
            ],
            [
              763139.8182774936,
              6843437.982587327
            ],
            [
              763141.958225937,
              6843440.326333396
            ],
            [
              763143.8164985743,
              6843441.511798645
            ]
          ]
        ]
      },
      "campusId": 171,
      "accessLevel": 0,
      "flags": [],
      "moh": null,
      "floorId": 8362,
      "floorName": "4",
      "buildingId": 2325,
      "buildingName": "Citadel",
      "identifierId": 1143901,
      "identifier": null,
      "title": "Hallway",
      "deleted": false,
      "infos": [
        {
          "id": 18434919,
          "poiId": 819652,
          "name": "Hallway",
          "priority": 20,
          "lang": null,
          "poiTypeId": null
        },
        {
          "id": 18404520,
          "poiId": 819652,
          "name": "T400VA",
          "priority": 20,
          "lang": null,
          "poiTypeId": null
        }
      ],
      "z": 4,
      "infoUrl": null,
      "description": null,
      "images": []
    }
  ],
  "fromid": 0,
  "limit": 2000
}
