{
    "features": [
        {
            "geometry": {
                "coordinates": [
                    [
                        [
                            6.856267407991329,
                            52.23936370535481
                        ],
                        [
                            6.856274746807552,
                            52.239369663445586
                        ],
                        [
                            6.856293466965429,
                            52.23936278340255
                        ],
                        [
                            6.85628699917156,
                            52.23935627361722
                        ],
                        [
                            6.856267407991329,
                            52.23936370535481
                        ]
                    ]
                ],
                "type": "Polygon"
            },
            "properties": {
                "buildingName": "Zilverling (ZI)",
                "floorName": "0",
                "title": null
            },
            "type": "Feature"
        },
        {
            "geometry": {
                "coordinates": [
                    [
                        [
                            6.857463837157639,
                            52.23892207854248
                        ],
                        [
                            6.857486332508839,
                            52.23891354904236
                        ],
                        [
                            6.857473826703018,
                            52.23890842421293
                        ],
                        [
                            6.857456264526043,
                            52.238915078722755
                        ],
                        [
                            6.857463837157639,
                            52.23892207854248
                        ]
                    ]
                ],
                "type": "Polygon"
            },
            "properties": {
                "buildingName": "Zilverling (ZI)",
                "floorName": "0",
                "title": null
            },
            "type": "Feature"
        },
        {
            "geometry": {
                "coordinates": [
                    [
                        [
                            6.857535743997272,
                            52.23890391936002
                        ],
                        [
                            6.857521823991174,
                            52.23889006187235
                        ],
                        [
                            6.857490713602113,
                            52.23890184173836
                        ],
                        [
                            6.857503290983194,
                            52.23890673868017
                        ],
                        [
                            6.857480653791446,
                            52.23891531527702
                        ],
                        [
                            6.857473423123018,
                            52.238908291382025
                        ],
                        [
                            6.857450836577685,
                            52.23891680225896
                        ],
                        [
                            6.857464758241048,
                            52.238930649612534
                        ],
                        [
                            6.857535743997272,
                            52.23890391936002
                        ]
                    ]
                ],
                "type": "Polygon"
            },
            "properties": {
                "buildingName": "Zilverling (ZI)",
                "floorName": "0",
                "title": "0000VL"
            },
            "type": "Feature"
        },
        {
            "geometry": {
                "coordinates": [
                    [
                        [
                            6.856599818854409,
                            52.2394242181001
                        ],
                        [
                            6.856594240945375,
                            52.23941866530854
                        ],
                        [
                            6.856547254463507,
                            52.23943636452861
                        ],
                        [
                            6.856552832372564,
                            52.23944191731793
                        ],
                        [
                            6.856599818854409,
                            52.2394242181001
                        ]
                    ]
                ],
                "type": "Polygon"
            },
            "properties": {
                "buildingName": "Zilverling (ZI)",
                "floorName": "0",
                "title": "0000VD"
            },
            "type": "Feature"
        },
        {
            "geometry": {
                "coordinates": [
                    [
                        [
                            6.856570063911123,
                            52.23920750086555
                        ],
                        [
                            6.856548574186395,
                            52.23918610779745
                        ],
                        [
                            6.856510923240734,
                            52.23920029048978
                        ],
                        [
                            6.856519255703382,
                            52.23920858546142
                        ],
                        [
                            6.856536673519436,
                            52.23920202434615
                        ],
                        [
                            6.856549830822857,
                            52.23921512245393
                        ],
                        [
                            6.856570063911123,
                            52.23920750086555
                        ]
                    ]
                ],
                "type": "Polygon"
            },
            "properties": {
                "buildingName": "Zilverling (ZI)",
                "floorName": "0",
                "title": "0000VC"
            },
            "type": "Feature"
        },
        {
            "geometry": {
                "coordinates": [
                    [
                        [
                            6.8563142618693185,
                            52.23934469750293
                        ],
                        [
                            6.8562931631131585,
                            52.239352645156686
                        ],
                        [
                            6.856299631425288,
                            52.23935908434133
                        ],
                        [
                            6.856278544260804,
                            52.23936709510159
                        ],
                        [
                            6.856278689778748,
                            52.239358097089884
                        ],
                        [
                            6.856243367238709,
                            52.23937140265698
                        ],
                        [
                            6.8562566853237215,
                            52.239384660597395
                        ],
                        [
                            6.8563275798027385,
                            52.23935795548719
                        ],
                        [
                            6.8563142618693185,
                            52.23934469750293
                        ]
                    ]
                ],
                "type": "Polygon"
            },
            "properties": {
                "buildingName": "Zilverling (ZI)",
                "floorName": "0",
                "title": "0000VA"
            },
            "type": "Feature"
        },
        {
            "geometry": {
                "coordinates": [
                    [
                        [
                            6.856748470665262,
                            52.239347795647475
                        ],
                        [
                            6.856728074227215,
                            52.239355478743754
                        ],
                        [
                            6.856742007687094,
                            52.23936934947932
                        ],
                        [
                            6.856762404125136,
                            52.23936166638548
                        ],
                        [
                            6.856748470665262,
                            52.239347795647475
                        ]
                    ]
                ],
                "type": "Polygon"
            },
            "properties": {
                "buildingName": "Zilverling (ZI)",
                "floorName": "0",
                "title": "0000VE"
            },
            "type": "Feature"
        },
        {
            "geometry": {
                "coordinates": [
                    [
                        [
                            6.856547823485375,
                            52.23918536043163
                        ],
                        [
                            6.856534215133592,
                            52.23917181332029
                        ],
                        [
                            6.856492515987211,
                            52.23918752094336
                        ],
                        [
                            6.856506124368198,
                            52.239201068050505
                        ],
                        [
                            6.856547823485375,
                            52.23918536043163
                        ]
                    ]
                ],
                "type": "Polygon"
            },
            "properties": {
                "buildingName": "Zilverling (ZI)",
                "floorName": "0",
                "title": "0000VB"
            },
            "type": "Feature"
        },
        {
            "geometry": {
                "coordinates": [
                    [
                        [
                            6.856952151008311,
                            52.23929153678514
                        ],
                        [
                            6.856946573099274,
                            52.23928598397695
                        ],
                        [
                            6.856899624776326,
                            52.2393037291852
                        ],
                        [
                            6.856905202685355,
                            52.239309281991176
                        ],
                        [
                            6.856952151008311,
                            52.23929153678514
                        ]
                    ]
                ],
                "type": "Polygon"
            },
            "properties": {
                "buildingName": "Zilverling (ZI)",
                "floorName": "0",
                "title": "0000VF"
            },
            "type": "Feature"
        }
    ],
    "type": "FeatureCollection"
}
