[
{
    "model": "buildings.building",
    "pk": 1,
    "fields": {
        "abbreviation": "Zi",
        "name": "Zilverling",
        "number": 11
    }
},
{
    "model": "buildings.building",
    "pk": 3,
    "fields": {
        "abbreviation": "Ra",
        "name": "Ravelijn",
        "number": 10
    }
},
{
    "model": "buildings.building",
    "pk": 4,
    "fields": {
        "abbreviation": "BA",
        "name": "Bastille",
        "number": 48
    }
},
{
    "model": "buildings.building",
    "pk": 5,
    "fields": {
        "abbreviation": "NL",
        "name": "Nanolab",
        "number": 16
    }
},
{
    "model": "buildings.building",
    "pk": 6,
    "fields": {
        "abbreviation": "CI",
        "name": "Citadel",
        "number": 9
    }
},
{
    "model": "buildings.building",
    "pk": 7,
    "fields": {
        "abbreviation": "PA",
        "name": "Paviljoen",
        "number": 6
    }
},
{
    "model": "buildings.building",
    "pk": 8,
    "fields": {
        "abbreviation": "SP",
        "name": "Spiegel",
        "number": 2
    }
},
{
    "model": "buildings.building",
    "pk": 9,
    "fields": {
        "abbreviation": "VR",
        "name": "Vrijhof",
        "number": 47
    }
},
{
    "model": "buildings.building",
    "pk": 10,
    "fields": {
        "abbreviation": "WA",
        "name": "Waaier",
        "number": 12
    }
},
{
    "model": "buildings.floor",
    "pk": 1,
    "fields": {
        "building": 1,
        "floor_number": 0
    }
},
{
    "model": "buildings.floor",
    "pk": 2,
    "fields": {
        "building": 1,
        "floor_number": 1
    }
},
{
    "model": "buildings.floor",
    "pk": 3,
    "fields": {
        "building": 1,
        "floor_number": 3
    }
},
{
    "model": "buildings.floor",
    "pk": 4,
    "fields": {
        "building": 3,
        "floor_number": 1
    }
},
{
    "model": "buildings.floor",
    "pk": 5,
    "fields": {
        "building": 4,
        "floor_number": 1
    }
},
{
    "model": "buildings.floor",
    "pk": 6,
    "fields": {
        "building": 5,
        "floor_number": 1
    }
},
{
    "model": "buildings.floor",
    "pk": 7,
    "fields": {
        "building": 6,
        "floor_number": 1
    }
},
{
    "model": "buildings.floor",
    "pk": 8,
    "fields": {
        "building": 7,
        "floor_number": 1
    }
},
{
    "model": "buildings.floor",
    "pk": 9,
    "fields": {
        "building": 8,
        "floor_number": 1
    }
},
{
    "model": "buildings.floor",
    "pk": 10,
    "fields": {
        "building": 9,
        "floor_number": 1
    }
},
{
    "model": "buildings.floor",
    "pk": 11,
    "fields": {
        "building": 10,
        "floor_number": 1
    }
},
{
    "model": "items.item",
    "pk": 2,
    "fields": {
        "floor": 2,
        "item_type": "WAP",
        "location": "[\"14.0\", \"4.6\"]",
        "location_description": "Left of the Ravelijn",
        "start_date": "2019-03-03T14:53:38Z",
        "end_date": null,
        "remarks": ""
    }
},
{
    "model": "items.wap",
    "pk": 2,
    "fields": {
        "mac": "01:23:45:67:89:ab"
    }
},
{
    "model": "auth.user",
    "pk": 1,
    "fields": {
        "password": "pbkdf2_sha256$120000$yeI6sAR9CpIe$7wW7oW9vI+e27StJ1e6Dg7PplrWL9mozx9TWrnEOcFo=",
        "last_login": "2019-03-03T14:52:55.932Z",
        "is_superuser": true,
        "username": "rens",
        "first_name": "",
        "last_name": "",
        "email": "rens.oliemans@gmail.com",
        "is_staff": true,
        "is_active": true,
        "date_joined": "2019-02-27T10:16:09.322Z",
        "groups": [],
        "user_permissions": []
    }
},
{
    "model": "auth.user",
    "pk": 2,
    "fields": {
        "password": "pbkdf2_sha256$120000$jmO4MpPxjPYV$j95W65t/VlBVEVdHmMvX8eMhP+VZTiAD+1xfKUbV03U=",
        "last_login": null,
        "is_superuser": true,
        "username": "kitty",
        "first_name": "",
        "last_name": "",
        "email": "",
        "is_staff": true,
        "is_active": true,
        "date_joined": "2019-03-03T14:58:27Z",
        "groups": [],
        "user_permissions": []
    }
},
{
    "model": "auth.user",
    "pk": 3,
    "fields": {
        "password": "pbkdf2_sha256$120000$YrX3UMUU3mtr$X5mjjgrc+RabilMVRSdBcdy/YUyx9Ir+/tS0VpsKxTA=",
        "last_login": null,
        "is_superuser": true,
        "username": "reinier",
        "first_name": "",
        "last_name": "",
        "email": "",
        "is_staff": true,
        "is_active": true,
        "date_joined": "2019-03-03T14:58:30Z",
        "groups": [],
        "user_permissions": []
    }
},
{
    "model": "auth.user",
    "pk": 4,
    "fields": {
        "password": "pbkdf2_sha256$120000$emgZYC5aMvu1$L6cUEqhnz5r2WCnq/pVIajobYQBoxjlf8IkS8EC/2dU=",
        "last_login": null,
        "is_superuser": true,
        "username": "danique",
        "first_name": "",
        "last_name": "",
        "email": "",
        "is_staff": true,
        "is_active": true,
        "date_joined": "2019-03-03T14:58:38Z",
        "groups": [],
        "user_permissions": []
    }
},
{
    "model": "sessions.session",
    "pk": "hdsooun7p9nzm2d49lvz861es9mg93uw",
    "fields": {
        "session_data": "MzI5ZjkxOTBmMDVjY2MyZjhkOTdjZGQzY2JlNzFkNTI4ZDJmZjZjNjp7Il9hdXRoX3VzZXJfaWQiOiIxIiwiX2F1dGhfdXNlcl9iYWNrZW5kIjoiZGphbmdvLmNvbnRyaWIuYXV0aC5iYWNrZW5kcy5Nb2RlbEJhY2tlbmQiLCJfYXV0aF91c2VyX2hhc2giOiJkMmE2M2ZiMzc1ZTUzZjA0YmNhZmY4NmY2ZDg4NjhkYzk4MjNiZDE0In0=",
        "expire_date": "2019-03-17T14:52:55.934Z"
    }
},
{
    "model": "sessions.session",
    "pk": "ts5j9gmh7dfxdrijito2h8s37aoq3nno",
    "fields": {
        "session_data": "MzI5ZjkxOTBmMDVjY2MyZjhkOTdjZGQzY2JlNzFkNTI4ZDJmZjZjNjp7Il9hdXRoX3VzZXJfaWQiOiIxIiwiX2F1dGhfdXNlcl9iYWNrZW5kIjoiZGphbmdvLmNvbnRyaWIuYXV0aC5iYWNrZW5kcy5Nb2RlbEJhY2tlbmQiLCJfYXV0aF91c2VyX2hhc2giOiJkMmE2M2ZiMzc1ZTUzZjA0YmNhZmY4NmY2ZDg4NjhkYzk4MjNiZDE0In0=",
        "expire_date": "2019-03-13T10:19:45.766Z"
    }
},
{
    "model": "admin.logentry",
    "pk": 1,
    "fields": {
        "action_time": "2019-03-03T14:53:17.680Z",
        "user": [
            "rens"
        ],
        "content_type": [
            "items",
            "wap"
        ],
        "object_id": "1",
        "object_repr": "WAP object (1)",
        "action_flag": 3,
        "change_message": ""
    }
},
{
    "model": "admin.logentry",
    "pk": 2,
    "fields": {
        "action_time": "2019-03-03T14:54:20.986Z",
        "user": [
            "rens"
        ],
        "content_type": [
            "items",
            "wap"
        ],
        "object_id": "2",
        "object_repr": "WAP object (2)",
        "action_flag": 1,
        "change_message": "[{\"added\": {}}]"
    }
},
{
    "model": "admin.logentry",
    "pk": 3,
    "fields": {
        "action_time": "2019-03-03T14:58:27.186Z",
        "user": [
            "rens"
        ],
        "content_type": [
            "auth",
            "user"
        ],
        "object_id": "2",
        "object_repr": "kitty",
        "action_flag": 1,
        "change_message": "[{\"added\": {}}]"
    }
},
{
    "model": "admin.logentry",
    "pk": 4,
    "fields": {
        "action_time": "2019-03-03T14:58:30.842Z",
        "user": [
            "rens"
        ],
        "content_type": [
            "auth",
            "user"
        ],
        "object_id": "3",
        "object_repr": "reinier",
        "action_flag": 1,
        "change_message": "[{\"added\": {}}]"
    }
},
{
    "model": "admin.logentry",
    "pk": 5,
    "fields": {
        "action_time": "2019-03-03T14:58:38.568Z",
        "user": [
            "rens"
        ],
        "content_type": [
            "auth",
            "user"
        ],
        "object_id": "4",
        "object_repr": "danique",
        "action_flag": 1,
        "change_message": "[{\"added\": {}}]"
    }
},
{
    "model": "admin.logentry",
    "pk": 6,
    "fields": {
        "action_time": "2019-03-03T14:58:49.187Z",
        "user": [
            "rens"
        ],
        "content_type": [
            "auth",
            "user"
        ],
        "object_id": "4",
        "object_repr": "danique",
        "action_flag": 2,
        "change_message": "[{\"changed\": {\"fields\": [\"is_staff\", \"is_superuser\"]}}]"
    }
},
{
    "model": "admin.logentry",
    "pk": 7,
    "fields": {
        "action_time": "2019-03-03T14:59:00.949Z",
        "user": [
            "rens"
        ],
        "content_type": [
            "auth",
            "user"
        ],
        "object_id": "2",
        "object_repr": "kitty",
        "action_flag": 2,
        "change_message": "[{\"changed\": {\"fields\": [\"is_staff\", \"is_superuser\"]}}]"
    }
},
{
    "model": "admin.logentry",
    "pk": 8,
    "fields": {
        "action_time": "2019-03-03T14:59:07.331Z",
        "user": [
            "rens"
        ],
        "content_type": [
            "auth",
            "user"
        ],
        "object_id": "3",
        "object_repr": "reinier",
        "action_flag": 2,
        "change_message": "[{\"changed\": {\"fields\": [\"is_staff\", \"is_superuser\"]}}]"
    }
},
{
    "model": "admin.logentry",
    "pk": 9,
    "fields": {
        "action_time": "2019-03-04T10:11:39.844Z",
        "user": [
            "rens"
        ],
        "content_type": [
            "buildings",
            "floor"
        ],
        "object_id": "3",
        "object_repr": "Zilverling: 3",
        "action_flag": 1,
        "change_message": "[{\"added\": {}}]"
    }
},
{
    "model": "admin.logentry",
    "pk": 10,
    "fields": {
        "action_time": "2019-03-11T14:03:28.255Z",
        "user": [
            "rens"
        ],
        "content_type": [
            "buildings",
            "floor"
        ],
        "object_id": "1",
        "object_repr": "Zilverling: 0",
        "action_flag": 2,
        "change_message": "[{\"changed\": {\"fields\": [\"geojson_filename\"]}}]"
    }
},
{
    "model": "admin.logentry",
    "pk": 11,
    "fields": {
        "action_time": "2019-03-11T14:03:46.605Z",
        "user": [
            "rens"
        ],
        "content_type": [
            "buildings",
            "floor"
        ],
        "object_id": "1",
        "object_repr": "Zilverling: 0",
        "action_flag": 2,
        "change_message": "[{\"changed\": {\"fields\": [\"geojson_filename\"]}}]"
    }
},
{
    "model": "admin.logentry",
    "pk": 12,
    "fields": {
        "action_time": "2019-03-11T14:03:54.230Z",
        "user": [
            "rens"
        ],
        "content_type": [
            "buildings",
            "floor"
        ],
        "object_id": "2",
        "object_repr": "Zilverling: 1",
        "action_flag": 2,
        "change_message": "[{\"changed\": {\"fields\": [\"geojson_filename\"]}}]"
    }
},
{
    "model": "admin.logentry",
    "pk": 13,
    "fields": {
        "action_time": "2019-03-11T14:04:48.587Z",
        "user": [
            "rens"
        ],
        "content_type": [
            "buildings",
            "floor"
        ],
        "object_id": "1",
        "object_repr": "Zilverling: 0",
        "action_flag": 2,
        "change_message": "[]"
    }
},
{
    "model": "admin.logentry",
    "pk": 14,
    "fields": {
        "action_time": "2019-03-11T14:57:07.484Z",
        "user": [
            "rens"
        ],
        "content_type": [
            "buildings",
            "floor"
        ],
        "object_id": "4",
        "object_repr": "Ravelijn: 1",
        "action_flag": 1,
        "change_message": "[{\"added\": {}}]"
    }
},
{
    "model": "admin.logentry",
    "pk": 15,
    "fields": {
        "action_time": "2019-03-11T14:57:41.820Z",
        "user": [
            "rens"
        ],
        "content_type": [
            "buildings",
            "building"
        ],
        "object_id": "4",
        "object_repr": "Bastille",
        "action_flag": 1,
        "change_message": "[{\"added\": {}}]"
    }
},
{
    "model": "admin.logentry",
    "pk": 16,
    "fields": {
        "action_time": "2019-03-11T14:57:52.686Z",
        "user": [
            "rens"
        ],
        "content_type": [
            "buildings",
            "floor"
        ],
        "object_id": "5",
        "object_repr": "Bastille: 1",
        "action_flag": 1,
        "change_message": "[{\"added\": {}}]"
    }
},
{
    "model": "admin.logentry",
    "pk": 17,
    "fields": {
        "action_time": "2019-03-11T14:59:31.793Z",
        "user": [
            "rens"
        ],
        "content_type": [
            "buildings",
            "building"
        ],
        "object_id": "5",
        "object_repr": "Nanolab",
        "action_flag": 1,
        "change_message": "[{\"added\": {}}]"
    }
},
{
    "model": "admin.logentry",
    "pk": 18,
    "fields": {
        "action_time": "2019-03-11T14:59:38.827Z",
        "user": [
            "rens"
        ],
        "content_type": [
            "buildings",
            "building"
        ],
        "object_id": "4",
        "object_repr": "Bastille",
        "action_flag": 2,
        "change_message": "[{\"changed\": {\"fields\": [\"number\"]}}]"
    }
},
{
    "model": "admin.logentry",
    "pk": 19,
    "fields": {
        "action_time": "2019-03-11T15:00:32.386Z",
        "user": [
            "rens"
        ],
        "content_type": [
            "buildings",
            "floor"
        ],
        "object_id": "6",
        "object_repr": "Nanolab: 1",
        "action_flag": 1,
        "change_message": "[{\"added\": {}}]"
    }
},
{
    "model": "admin.logentry",
    "pk": 20,
    "fields": {
        "action_time": "2019-03-11T15:02:23.788Z",
        "user": [
            "rens"
        ],
        "content_type": [
            "buildings",
            "building"
        ],
        "object_id": "6",
        "object_repr": "Citadel",
        "action_flag": 1,
        "change_message": "[{\"added\": {}}]"
    }
},
{
    "model": "admin.logentry",
    "pk": 21,
    "fields": {
        "action_time": "2019-03-11T15:02:33.401Z",
        "user": [
            "rens"
        ],
        "content_type": [
            "buildings",
            "building"
        ],
        "object_id": "7",
        "object_repr": "Paviljoen",
        "action_flag": 1,
        "change_message": "[{\"added\": {}}]"
    }
},
{
    "model": "admin.logentry",
    "pk": 22,
    "fields": {
        "action_time": "2019-03-11T15:02:45.994Z",
        "user": [
            "rens"
        ],
        "content_type": [
            "buildings",
            "building"
        ],
        "object_id": "8",
        "object_repr": "Spiegel",
        "action_flag": 1,
        "change_message": "[{\"added\": {}}]"
    }
},
{
    "model": "admin.logentry",
    "pk": 23,
    "fields": {
        "action_time": "2019-03-11T15:02:56.489Z",
        "user": [
            "rens"
        ],
        "content_type": [
            "buildings",
            "building"
        ],
        "object_id": "9",
        "object_repr": "Vrijhof",
        "action_flag": 1,
        "change_message": "[{\"added\": {}}]"
    }
},
{
    "model": "admin.logentry",
    "pk": 24,
    "fields": {
        "action_time": "2019-03-11T15:03:06.523Z",
        "user": [
            "rens"
        ],
        "content_type": [
            "buildings",
            "building"
        ],
        "object_id": "10",
        "object_repr": "Waaier",
        "action_flag": 1,
        "change_message": "[{\"added\": {}}]"
    }
},
{
    "model": "admin.logentry",
    "pk": 25,
    "fields": {
        "action_time": "2019-03-11T15:03:16.174Z",
        "user": [
            "rens"
        ],
        "content_type": [
            "buildings",
            "floor"
        ],
        "object_id": "7",
        "object_repr": "Citadel: 1",
        "action_flag": 1,
        "change_message": "[{\"added\": {}}]"
    }
},
{
    "model": "admin.logentry",
    "pk": 26,
    "fields": {
        "action_time": "2019-03-11T15:03:22.665Z",
        "user": [
            "rens"
        ],
        "content_type": [
            "buildings",
            "floor"
        ],
        "object_id": "8",
        "object_repr": "Paviljoen: 1",
        "action_flag": 1,
        "change_message": "[{\"added\": {}}]"
    }
},
{
    "model": "admin.logentry",
    "pk": 27,
    "fields": {
        "action_time": "2019-03-11T15:03:26.198Z",
        "user": [
            "rens"
        ],
        "content_type": [
            "buildings",
            "floor"
        ],
        "object_id": "9",
        "object_repr": "Spiegel: 1",
        "action_flag": 1,
        "change_message": "[{\"added\": {}}]"
    }
},
{
    "model": "admin.logentry",
    "pk": 28,
    "fields": {
        "action_time": "2019-03-11T15:03:29.603Z",
        "user": [
            "rens"
        ],
        "content_type": [
            "buildings",
            "floor"
        ],
        "object_id": "10",
        "object_repr": "Vrijhof: 1",
        "action_flag": 1,
        "change_message": "[{\"added\": {}}]"
    }
},
{
    "model": "admin.logentry",
    "pk": 29,
    "fields": {
        "action_time": "2019-03-11T15:03:32.334Z",
        "user": [
            "rens"
        ],
        "content_type": [
            "buildings",
            "floor"
        ],
        "object_id": "10",
        "object_repr": "Vrijhof: 1",
        "action_flag": 2,
        "change_message": "[]"
    }
},
{
    "model": "admin.logentry",
    "pk": 30,
    "fields": {
        "action_time": "2019-03-11T15:03:38.728Z",
        "user": [
            "rens"
        ],
        "content_type": [
            "buildings",
            "floor"
        ],
        "object_id": "11",
        "object_repr": "Waaier: 1",
        "action_flag": 1,
        "change_message": "[{\"added\": {}}]"
    }
}
]
